%YAML 1.1
%TAG !u! tag:unity3d.com,2011:
--- !u!114 &11400000
MonoBehaviour:
  m_ObjectHideFlags: 0
  m_CorrespondingSourceObject: {fileID: 0}
  m_PrefabInstance: {fileID: 0}
  m_PrefabAsset: {fileID: 0}
  m_GameObject: {fileID: 0}
  m_Enabled: 1
  m_EditorHideFlags: 0
  m_Script: {fileID: 11500000, guid: a606d4845cfe057438f2b55dd39a1211, type: 3}
  m_Name: KiteSage
  m_EditorClassIdentifier: 
  allLines:
  - dialogue: 'Dae:

      Hey.'
  - dialogue: "Dae:\nIt\u2019s me. Your brother."
  - dialogue: "Dae:\nSorry if you\u2019re disappointed to see that I was involved
      in making this game."
  - dialogue: 'Dae:

      When we were kids you always wanted me to play any games
      you made up.'
  - dialogue: 'Dae:

      It shouldn''t be out of line for me to do the same to
      you, right?'
  - dialogue: 'Dae:

      As we got older, I always wanted to do whatever you were
      doing.'
  - dialogue: 'Dae:

      You never seemed interested in me joining at that point.'
  - dialogue: 'Dae:

      Last August, I had a memory of you. We were kids playing
      hide and seek. together..'
  - dialogue: "Dae:\nThat\u2019s the moment I found the magic stone."
