%YAML 1.1
%TAG !u! tag:unity3d.com,2011:
--- !u!1 &7832189106506590635
GameObject:
  m_ObjectHideFlags: 0
  m_CorrespondingSourceObject: {fileID: 0}
  m_PrefabInstance: {fileID: 0}
  m_PrefabAsset: {fileID: 0}
  serializedVersion: 6
  m_Component:
  - component: {fileID: 7832189106506590294}
  - component: {fileID: 7832189106506590293}
  - component: {fileID: 7832189106506590292}
  m_Layer: 0
  m_Name: shrinkWindow
  m_TagString: Untagged
  m_Icon: {fileID: 0}
  m_NavMeshLayer: 0
  m_StaticEditorFlags: 0
  m_IsActive: 1
--- !u!4 &7832189106506590294
Transform:
  m_ObjectHideFlags: 0
  m_CorrespondingSourceObject: {fileID: 0}
  m_PrefabInstance: {fileID: 0}
  m_PrefabAsset: {fileID: 0}
  m_GameObject: {fileID: 7832189106506590635}
  m_LocalRotation: {x: 0, y: 0, z: 0, w: 1}
  m_LocalPosition: {x: 0, y: 0, z: 0}
  m_LocalScale: {x: 1, y: 1, z: 1}
  m_Children: []
  m_Father: {fileID: 0}
  m_RootOrder: 0
  m_LocalEulerAnglesHint: {x: 0, y: 0, z: 0}
--- !u!114 &7832189106506590293
MonoBehaviour:
  m_ObjectHideFlags: 0
  m_CorrespondingSourceObject: {fileID: 0}
  m_PrefabInstance: {fileID: 0}
  m_PrefabAsset: {fileID: 0}
  m_GameObject: {fileID: 7832189106506590635}
  m_Enabled: 1
  m_EditorHideFlags: 0
  m_Script: {fileID: 11500000, guid: 231587229f66fcc4eb819f830de0c96e, type: 3}
  m_Name: 
  m_EditorClassIdentifier: 
  shrinkingTime: 10
  shrinkOnAwake: 0
  targetResolution:
    width: 640
    height: 480
  refreshRate: 60
--- !u!114 &7832189106506590292
MonoBehaviour:
  m_ObjectHideFlags: 0
  m_CorrespondingSourceObject: {fileID: 0}
  m_PrefabInstance: {fileID: 0}
  m_PrefabAsset: {fileID: 0}
  m_GameObject: {fileID: 7832189106506590635}
  m_Enabled: 1
  m_EditorHideFlags: 0
  m_Script: {fileID: 11500000, guid: 4587fc83a24345945aabd1b8863b70bf, type: 3}
  m_Name: 
  m_EditorClassIdentifier: 
  events:
    m_PersistentCalls:
      m_Calls:
      - m_Target: {fileID: 7832189106506590293}
        m_TargetAssemblyTypeName: ShrinkWindow, Assembly-CSharp
        m_MethodName: StartShrinking
        m_Mode: 1
        m_Arguments:
          m_ObjectArgument: {fileID: 0}
          m_ObjectArgumentAssemblyTypeName: UnityEngine.Object, UnityEngine
          m_IntArgument: 0
          m_FloatArgument: 0
          m_StringArgument: 
          m_BoolArgument: 0
        m_CallState: 2
  waitTime: 2
