%YAML 1.1
%TAG !u! tag:unity3d.com,2011:
--- !u!1045 &1
EditorBuildSettings:
  m_ObjectHideFlags: 0
  serializedVersion: 2
  m_Scenes:
  - enabled: 1
    path: Assets/Hao/RealTitleScreen/TitleScreen.unity
    guid: fc0bd352880c62944b9bad6cba1c7141
  - enabled: 1
    path: Assets/Joey/Scenes/prototyping/RPG.unity
    guid: 375c587843f44dd4c82cb69a9295c0b2
  - enabled: 1
    path: Assets/Joey/Scenes/prototyping/windowShrinkingPrototype.unity
    guid: 7b4e94a315437a14896f21212d0429d5
  - enabled: 0
    path: Assets/SHARED/Scenes/MainMenu.unity
    guid: 570ce4145ed521748a42faba1247529c
  - enabled: 1
    path: Assets/Hao/Kite Game/Kite Game.unity
    guid: b57544f1141ceb04f8cf52ee5a32d94c
  - enabled: 0
    path: Assets/Joey/Scenes/boat_soccer.unity
    guid: 46d6c6e6a4d1a1b4c80589650c386615
  - enabled: 0
    path: Assets/Joey/Scenes/museum.unity
    guid: 06e624f1df18c2647abd33515d5e7de3
  - enabled: 0
    path: Assets/Hao/Shadow Jumping/Scenes/Hao.unity
    guid: d9e35a9c94faabb46b1c0ec68f86b005
  - enabled: 1
    path: Assets/Luke/Scenes/Museum.unity
    guid: 354eab3f61d2dab41ae1c0891a60c1bd
  - enabled: 1
    path: Assets/Joey/Scenes/sleepy_diner.unity
    guid: d428fd5813c74ba45a8320fd3ea9d3bc
  - enabled: 1
    path: Assets/Hao/CardGame/Scene/CardGame.unity
    guid: aa6241c2de10df642aeab759a509b260
  - enabled: 1
    path: Assets/Hao/Train/Scene/Train.unity
    guid: 78b4e2626f1210d47807519487c669b6
  - enabled: 0
    path: Assets/Joey/Scenes/MenuMap.unity
    guid: 35bd9e53b20544f4ab7e58bb0eace371
  - enabled: 0
    path: Assets/Joey/Scenes/MenuTextInterludes.unity
    guid: 0e3f3049cb2569047aaf85d14755c04f
  - enabled: 1
    path: Assets/Luke/Scenes/Movie.unity
    guid: 79c33b689b28d0b4c9d5bab2c92c4bda
  - enabled: 1
    path: Assets/Joey/Scenes/OpeningCrawl.unity
    guid: 3466c066dd7cd7145b2a874e6b8fb576
  m_configObjects: {}
