%YAML 1.1
%TAG !u! tag:unity3d.com,2011:
--- !u!114 &11400000
MonoBehaviour:
  m_ObjectHideFlags: 0
  m_CorrespondingSourceObject: {fileID: 0}
  m_PrefabInstance: {fileID: 0}
  m_PrefabAsset: {fileID: 0}
  m_GameObject: {fileID: 0}
  m_Enabled: 1
  m_EditorHideFlags: 0
  m_Script: {fileID: 11500000, guid: a606d4845cfe057438f2b55dd39a1211, type: 3}
  m_Name: MayeCave 1
  m_EditorClassIdentifier: 
  allLines:
  - dialogue: "Maye:\nNow that we\u2019re safe in this outer plane, I need to ask
      you a serious question."
  - dialogue: 'Maye:

      Is it really you this time, Archie?'
  - dialogue: "Maye:\nThere have been others who\u2019ve come through here, wearing
      a face like yours but... I sense something about you."
  - dialogue: "Maye:\nIt\u2019s kind of upsetting to think about, you know? You being
      gone."
  - dialogue: 'Maye:

      You and I were best friends. Partners who shared such
      a vision for what this world could be like.'
