%YAML 1.1
%TAG !u! tag:unity3d.com,2011:
--- !u!114 &11400000
MonoBehaviour:
  m_ObjectHideFlags: 0
  m_CorrespondingSourceObject: {fileID: 0}
  m_PrefabInstance: {fileID: 0}
  m_PrefabAsset: {fileID: 0}
  m_GameObject: {fileID: 0}
  m_Enabled: 1
  m_EditorHideFlags: 0
  m_Script: {fileID: 11500000, guid: a606d4845cfe057438f2b55dd39a1211, type: 3}
  m_Name: MayeCave 3
  m_EditorClassIdentifier: 
  allLines:
  - dialogue: "Maye:\nThe sages\u2013your friends and I, have fallen apart since
      you\u2019ve passed."
  - dialogue: 'Maye:

      We hardly spend time together anymore. The heartache
      has affected each of us differently.'
  - dialogue: "Maye:\nI don\u2019t really blame them, I just hate to see everyone
      so distant."
  - dialogue: "Maye:\nI can\u2019t do this alone."
  - dialogue: "Maye:\nYou used to be so calm during times like these. Now I\u2019m
      here feeling like I\u2019m just picking up the pieces."
  - dialogue: "Maye:\nThat\u2019s why I need you, Archie. I need your kind heart
      to bring our friends back together."
