%YAML 1.1
%TAG !u! tag:unity3d.com,2011:
--- !u!114 &11400000
MonoBehaviour:
  m_ObjectHideFlags: 0
  m_CorrespondingSourceObject: {fileID: 0}
  m_PrefabInstance: {fileID: 0}
  m_PrefabAsset: {fileID: 0}
  m_GameObject: {fileID: 0}
  m_Enabled: 1
  m_EditorHideFlags: 0
  m_Script: {fileID: 11500000, guid: a606d4845cfe057438f2b55dd39a1211, type: 3}
  m_Name: Woman talking to Man
  m_EditorClassIdentifier: 
  allLines:
  - dialogue: 'Woman talking to Man:

      I''ve heard the Magic Stones are meant
      to give untold strength to whoever swallows them.'
  - dialogue: 'Man responding to Woman:

      That must be why they scattered! So
      no one eats them as snacks!'
